<svg width="319" height="318" viewBox="0 0 319 318" fill="none" xmlns="http://www.w3.org/2000/svg">
<path d="M145.8 120.4C145.9 119.3 146.9 118.5 148 118.5H158.9H169.8C170.9 118.5 171.8 119.3 172 120.4L174.1 135.2C174.3 136.9 172.6 138.2 171.1 137.5C167.3 135.9 163.2 135.1 159.1 135.1C155 135.1 150.9 135.9 147.1 137.5C145.5 138.2 143.8 136.9 144.1 135.2L145.8 120.4ZM171.9 213.7C171.8 214.8 170.8 215.6 169.7 215.6H158.8H147.9C146.8 215.6 145.9 214.8 145.7 213.7L143.6 198.8C143.4 197.1 145.1 195.8 146.6 196.5C150.4 198.1 154.5 198.9 158.6 198.9C162.7 198.9 166.8 198.1 170.6 196.5C172.2 195.8 173.9 197.1 173.6 198.8L171.9 213.7ZM179.1 187.3C173.7 192.7 166.5 195.7 158.9 195.7C151.3 195.7 144.1 192.7 138.7 187.3C133.3 181.9 130.3 174.7 130.3 167.1C130.3 159.5 133.3 152.3 138.7 146.9C139.8 145.8 141.1 144.7 142.3 143.8C142.4 143.8 142.4 143.7 142.4 143.7C147.2 140.3 152.9 138.5 158.8 138.5C164.8 138.5 170.4 140.3 175.2 143.7L175.3 143.8C176.6 144.7 177.8 145.8 178.9 146.9C184.3 152.3 187.3 159.5 187.3 167.1C187.3 174.7 184.5 181.9 179.1 187.3Z" stroke="white" stroke-miterlimit="10"/>
<path d="M157.7 152.6V167C157.7 167.6 158.2 168.2 158.9 168.2H170.5" stroke="white" stroke-miterlimit="10" stroke-linecap="round"/>
<path d="M296.3 315.7H22.7C11.7 315.7 2.79999 306.8 2.79999 295.8V22.4C2.79999 11.4 11.7 2.5 22.7 2.5H296.2C307.2 2.5 316.1 11.4 316.1 22.4V295.9C316.1 306.8 307.2 315.7 296.3 315.7Z" stroke="#8D9296" stroke-miterlimit="10"/>
<path d="M64.7 297.3C64.7 297 68.1 267.2 69 261.1C72.5 235.6 85 203.3 89.3 197.6C90.3 196.2 91.6 195.1 93.2 194.3C98.8 191.3 107.7 187 112.6 184.6V232.6H115.5C115.7 232.6 120.9 231.4 126.8 227.6C132.1 224.1 136 219.6 139.4 215.6L140.1 214.8C141.6 213 142.9 211.6 144.1 210.4C147.4 207.2 151.5 205.7 155.6 206C159 206.3 162 207.7 163.6 209.9C164.4 210.9 164.8 212 164.8 212.9C164.8 213.1 164.8 213.2 164.7 213.5C164.3 215.7 162 218.1 159.7 220.5C158.6 221.7 157.4 222.9 156.5 224.1C147.2 236.1 141.8 244.6 137.4 251.5C132.4 259.3 128.8 264.9 122.5 270.9C116.8 276.2 112.6 279 108.7 281.1C107.7 281.7 106.7 282.2 105.6 282.7C104.8 283.1 104.3 283.9 104.3 284.8V297.1M130.1 262.3H194.9C201 262.3 205.9 257.4 205.9 251.3V70.5C205.9 64.4 201 59.5 194.9 59.5H123.5C117.4 59.5 112.5 64.4 112.5 70.5V192.5" stroke="white" stroke-miterlimit="10"/>
<path d="M127.1 59.5H131.4C132.3 59.5 133.1 60.2 133.1 61.2V61.6C133.1 64.6 135.5 67 138.5 67H179.3C182.3 67 184.7 64.6 184.7 61.6V61.2C184.7 60.3 185.4 59.5 186.4 59.5H190.3" stroke="white" stroke-miterlimit="10"/>
</svg>
