[
  {
    "id": "personal-info",
    "path": "personal-info",
    "icon": "pf-icon-user",
    "label": "personalInfoHtmlTitle",
    "descriptionLabel": "personalInfoIntroMessage",
    "modulePath": "/content/account-page/AccountPage",
    "componentName": "AccountPage"
  },
  {
    "id": "security",
    "icon": "pf-icon-security",
    "label": "accountSecurityTitle",
    "descriptionLabel": "accountSecurityIntroMessage",
    "content": [
      {
        "id": "signingin",
        "path": "security/signingin",
        "label": "signingIn",
        "modulePath": "/content/signingin-page/SigningInPage",
        "componentName": "SigningInPage"
      },
      {
        "id": "device-activity",
        "path": "security/device-activity",
        "label": "device-activity",
        "modulePath": "/content/device-activity-page/DeviceActivityPage",
        "componentName": "DeviceActivityPage"
      },
      {
        "id": "linked-accounts",
        "path": "security/linked-accounts",
        "label": "linkedAccountsHtmlTitle",
        "modulePath": "/content/linked-accounts-page/LinkedAccountsPage",
        "componentName": "LinkedAccountsPage",
        "hidden": "!features.isLinkedAccountsEnabled"
      }
    ]
  },
  {
    "id": "keyvault",
    "icon": "pf-icon-key",
    "label": "KeyVault",
    "descriptionLabel": "Manage your KeyVault device",
    "content": [
      {
        "id": "keyvaultsettings",
        "path": "security/keyvaultsettings",
        "label": "Settings",
        "modulePath": "/content/keyvault-settings-editor/SettingsEditorKeyvaultAccountWrapper.js",
        "componentName": "SettingsEditorKeyvaultAccountWrapper"
      },
      {
        "id": "keyvaultmanagement",
        "path": "security/keyvaultmanagement",
        "label": "Backup and Restore",
        "modulePath": "/content/keyvault-page/KeyvaultPage.js",
        "componentName": "KeyvaultPage"
      },
      {
        "id": "keyvaultcredentialmanagement",
        "path": "security/keyvaultcredentialmanagement",
        "label": "Discoverable Credentials",
        "modulePath": "/content/keyvault-credential-management/CredentialManagementEditorAccountWrapper.js",
        "componentName": "CredentialManagementEditorAccountWrapper"
      },
      {
        "id": "keyvaultcertificates",
        "path": "security/keyvaultcertificates",
        "label": "Certificates",
        "modulePath": "/content/keyvault-certificates/CertificatesAccountWrapper.js",
        "componentName": "CertificatesAccountWrapper"
      }
    ]
  },
  {
    "id": "applications",
    "icon": "pf-icon-applications",
    "path": "applications",
    "label": "applications",
    "descriptionLabel": "applicationsIntroMessage",
    "modulePath": "/content/applications-page/ApplicationsPage",
    "componentName": "ApplicationsPage"
  },
  {
    "id": "resources",
    "icon": "pf-icon-repository",
    "path": "resources",
    "label": "resources",
    "descriptionLabel": "resourceIntroMessage",
    "modulePath": "/content/my-resources-page/MyResourcesPage",
    "componentName": "MyResourcesPage",
    "hidden": "!features.isMyResourcesEnabled"
  }
]