{
  "files": {
    "main.js": "./static/js/main.js",
    "main.js.map": "./static/js/main.js.map",
    "runtime-main.js": "./static/js/bundle.js",
    "runtime-main.js.map": "./static/js/bundle.js.map",
    "index.html": "./index.html",
    "static/js/main.js.LICENSE.txt": "./static/js/main.js.LICENSE.txt"
  },
  "entrypoints": [
    "static/js/bundle.js",
    "static/js/main.js"
  ]
}